Project 1 · Portfolio website of Jules Noël
…
# Remove Comedy and Mystery
movies_final <- movies_new %>% 
  filter(genre %in% c("Drama", "Biography", "Crime", "Adventure"))

However, if I keep my list as such, I will simply have too much movies on it. I need to find a way to reduce it.
I think that the number of facebook likes might be of interest, I’ll only select movies with a rating higher than 7.5.

movies_final <- movies_final %>%
  select(title, cast_facebook_likes,  year, rating, duration, genre) %>% 
  filter(rating > 7.5) %>% 
  arrange(desc(cast_facebook_likes)) 

movies_final  

## # A tibble: 23 x 6
##    title                   cast_facebook_likes  year rating duration genre    
##    <chr>                                 <dbl> <dbl>  <dbl>    <dbl> <chr>    
##  1 The Revenant                          57108  2015    8.1      156 Adventure
##  2 The Hateful Eight                     49912  2015    7.9      187 Crime    
##  3 Les Miserables                        46204  2012    7.6      158 Drama    
##  4 The Wolf of Wall Street               46057  2013    8.2      240 Biography
##  5 The Departed                          45648  2006    8.5      151 Crime    
##  6 Django Unchained                      40978  2012    8.5      165 Drama    
##  7 Prisoners                             37321  2013    8.1      153 Crime    
##  8 Zodiac                                36928  2007    7.7      162 Crime    
##  9 Almost Famous                         36897  2000    7.9      152 Adventure
## 10 Inglourious Basterds                  36741  2009    8.3      153 Adventure
## # ... with 13 more rows
…
